…
-   I will make a new tibble looking at only the columns containing mean
    observations, which simplifies the dataset. I will also filter out
    observations with missing diagnoses, as this is not relevant to my
    research question here, as well as those with missing patient ID.

``` r
mean_cancers <- cancer_sample %>%
  select(ID, diagnosis, ends_with("mean")) %>%
  filter(is.na(ID) == FALSE, is.na(diagnosis) == FALSE)

mean_cancers
```

    ## # A tibble: 569 × 12
    ##          ID diagnosis radius_mean texture_mean perimeter_mean area_mean
    ##       <dbl> <chr>           <dbl>        <dbl>          <dbl>     <dbl>
    ##  1   842302 M                18.0         10.4          123.      1001 
    ##  2   842517 M                20.6         17.8          133.      1326 
    ##  3 84300903 M                19.7         21.2          130       1203 
    ##  4 84348301 M                11.4         20.4           77.6      386.
    ##  5 84358402 M                20.3         14.3          135.      1297 
    ##  6   843786 M                12.4         15.7           82.6      477.
    ##  7   844359 M                18.2         20.0          120.      1040 
    ##  8 84458202 M                13.7         20.8           90.2      578.
    ##  9   844981 M                13           21.8           87.5      520.
    ## 10 84501001 M                12.5         24.0           84.0      476.
    ## # ℹ 559 more rows
    ## # ℹ 6 more variables: smoothness_mean <dbl>, compactness_mean <dbl>,
    ## #   concavity_mean <dbl>, concave_points_mean <dbl>, symmetry_mean <dbl>,
    ## #   fractal_dimension_mean <dbl>
…
