…
``` r
#The following code will divide tumour radius into large, medium and small groups, creating a new categorical variable 'radius_cat' and bringing it near the front of the table.
cancer_sample1 <- cancer_sample %>%
  mutate(radius_cat = case_when(radius_mean < 10 ~ "Very Small",
                                radius_mean < 15 ~ "Small",
                                radius_mean < 20 ~ "Intermediate",
                                TRUE ~ "Large")) %>%
  select(ID, diagnosis, radius_mean, radius_cat, everything())
cancer_sample1
```

    ## # A tibble: 569 × 33
    ##        ID diagnosis radius_mean radius_cat texture_mean perimeter_mean area_mean
    ##     <dbl> <chr>           <dbl> <chr>             <dbl>          <dbl>     <dbl>
    ##  1 8.42e5 M                18.0 Intermedi…         10.4          123.      1001 
    ##  2 8.43e5 M                20.6 Large              17.8          133.      1326 
    ##  3 8.43e7 M                19.7 Intermedi…         21.2          130       1203 
    ##  4 8.43e7 M                11.4 Small              20.4           77.6      386.
    ##  5 8.44e7 M                20.3 Large              14.3          135.      1297 
    ##  6 8.44e5 M                12.4 Small              15.7           82.6      477.
    ##  7 8.44e5 M                18.2 Intermedi…         20.0          120.      1040 
    ##  8 8.45e7 M                13.7 Small              20.8           90.2      578.
    ##  9 8.45e5 M                13   Small              21.8           87.5      520.
    ## 10 8.45e7 M                12.5 Small              24.0           84.0      476.
    ## # ℹ 559 more rows
    ## # ℹ 26 more variables: smoothness_mean <dbl>, compactness_mean <dbl>,
    ## #   concavity_mean <dbl>, concave_points_mean <dbl>, symmetry_mean <dbl>,
    ## #   fractal_dimension_mean <dbl>, radius_se <dbl>, texture_se <dbl>,
    ## #   perimeter_se <dbl>, area_se <dbl>, smoothness_se <dbl>,
    ## #   compactness_se <dbl>, concavity_se <dbl>, concave_points_se <dbl>,
    ## #   symmetry_se <dbl>, fractal_dimension_se <dbl>, radius_worst <dbl>, …
…
Be sure to explain your reasoning for this task. Show us the “before”
and “after”.

<!--------------------------- Start your work below --------------------------->

``` r
#This code will untidy the dataset by converting the two values of the diagnosis variable into new, separate variables, with values taken from 'radius_mean'.
untidy_data <- cancer_sample %>%
  pivot_wider(names_from = diagnosis, values_from = radius_mean) %>%
  select(ID, M, B, everything())

untidy_data
```

    ## # A tibble: 569 × 32
    ##          ID     M     B texture_mean perimeter_mean area_mean smoothness_mean
    ##       <dbl> <dbl> <dbl>        <dbl>          <dbl>     <dbl>           <dbl>
    ##  1   842302  18.0    NA         10.4          123.      1001           0.118 
    ##  2   842517  20.6    NA         17.8          133.      1326           0.0847
    ##  3 84300903  19.7    NA         21.2          130       1203           0.110 
    ##  4 84348301  11.4    NA         20.4           77.6      386.          0.142 
    ##  5 84358402  20.3    NA         14.3          135.      1297           0.100 
    ##  6   843786  12.4    NA         15.7           82.6      477.          0.128 
    ##  7   844359  18.2    NA         20.0          120.      1040           0.0946
    ##  8 84458202  13.7    NA         20.8           90.2      578.          0.119 
    ##  9   844981  13      NA         21.8           87.5      520.          0.127 
    ## 10 84501001  12.5    NA         24.0           84.0      476.          0.119 
    ## # ℹ 559 more rows
    ## # ℹ 25 more variables: compactness_mean <dbl>, concavity_mean <dbl>,
    ## #   concave_points_mean <dbl>, symmetry_mean <dbl>,
    ## #   fractal_dimension_mean <dbl>, radius_se <dbl>, texture_se <dbl>,
    ## #   perimeter_se <dbl>, area_se <dbl>, smoothness_se <dbl>,
    ## #   compactness_se <dbl>, concavity_se <dbl>, concave_points_se <dbl>,
    ## #   symmetry_se <dbl>, fractal_dimension_se <dbl>, radius_worst <dbl>, …

``` r
#Next, we will convert the untidy dataset back to tidy format by resetting the 'M' and 'B' categories back to variables, and sending their values back to 'radius_mean'.
retidied_data <- untidy_data %>%
  pivot_longer(c(M, B), names_to = "diagnosis", values_to = "radius_mean", values_drop_na = TRUE) %>%
  select(ID, diagnosis, radius_mean, everything())

retidied_data
```

    ## # A tibble: 569 × 32
    ##          ID diagnosis radius_mean texture_mean perimeter_mean area_mean
    ##       <dbl> <chr>           <dbl>        <dbl>          <dbl>     <dbl>
    ##  1   842302 M                18.0         10.4          123.      1001 
    ##  2   842517 M                20.6         17.8          133.      1326 
    ##  3 84300903 M                19.7         21.2          130       1203 
    ##  4 84348301 M                11.4         20.4           77.6      386.
    ##  5 84358402 M                20.3         14.3          135.      1297 
    ##  6   843786 M                12.4         15.7           82.6      477.
    ##  7   844359 M                18.2         20.0          120.      1040 
    ##  8 84458202 M                13.7         20.8           90.2      578.
    ##  9   844981 M                13           21.8           87.5      520.
    ## 10 84501001 M                12.5         24.0           84.0      476.
    ## # ℹ 559 more rows
    ## # ℹ 26 more variables: smoothness_mean <dbl>, compactness_mean <dbl>,
    ## #   concavity_mean <dbl>, concave_points_mean <dbl>, symmetry_mean <dbl>,
    ## #   fractal_dimension_mean <dbl>, radius_se <dbl>, texture_se <dbl>,
    ## #   perimeter_se <dbl>, area_se <dbl>, smoothness_se <dbl>,
    ## #   compactness_se <dbl>, concavity_se <dbl>, concave_points_se <dbl>,
    ## #   symmetry_se <dbl>, fractal_dimension_se <dbl>, radius_worst <dbl>, …
…
<!--------------------------- Start your work below --------------------------->

``` r
#This code will simplify the data by selecting only the 'mean' variables (ignoring the 'best', 'worst' and 'se' variables which are irrelevant to the research questions). Then, we will check for and remove observations with missing IDs or diagnoses, shorten the name of each variable to faciliate graph labels, and arrange the observations in ascending order of ID.
cancer_sample2 <- cancer_sample1 %>%
  select(ID:fractal_dimension_mean) %>%
  filter(ID != "NA" & diagnosis != "NA") %>%
  rename("radius" = radius_mean, "texture" = texture_mean, "perimetre" = perimeter_mean, "area" = area_mean, "smoothness" = smoothness_mean, "compactness" = compactness_mean, "concavity" = concavity_mean, "concave_points" = concave_points_mean, "symmetry" = symmetry_mean, "fractal_dimension" = fractal_dimension_mean) %>%
  arrange(ID)

cancer_sample2
```

    ## # A tibble: 569 × 13
    ##       ID diagnosis radius radius_cat   texture perimetre  area smoothness
    ##    <dbl> <chr>      <dbl> <chr>          <dbl>     <dbl> <dbl>      <dbl>
    ##  1  8670 M           15.5 Intermediate    19.5     102.   749.     0.109 
    ##  2  8913 B           12.9 Small           13.1      81.9  516.     0.0696
    ##  3  8915 B           15.0 Small           19.1      97.0  687.     0.0899
    ##  4  9047 B           12.9 Small           16.2      83.2  508.     0.0988
    ##  5 85715 M           13.2 Small           18.7      86.0  535.     0.116 
    ##  6 86208 M           20.3 Large           23.0     132.  1264      0.0908
    ##  7 86211 B           12.2 Small           17.8      77.8  451.     0.104 
    ##  8 86355 M           22.3 Large           19.7     153.  1509      0.133 
    ##  9 86408 B           12.6 Small           20.8      82.2  480.     0.0993
    ## 10 86409 B           14.3 Small           19.6      97.8  630.     0.0784
    ## # ℹ 559 more rows
    ## # ℹ 5 more variables: compactness <dbl>, concavity <dbl>, concave_points <dbl>,
    ## #   symmetry <dbl>, fractal_dimension <dbl>
…
